top.vcd
$scope module top $end
$var wire 1 n1 LED0 $end
$var wire 1 n2 LED1 $end
$var wire 1 n3 LED2 $end
$var wire 1 n4 LED3 $end
$var wire 1 n5 LED4 $end
$var wire 1 n6 LED5 $end
$var wire 1 n7 LED6 $end
$var wire 1 n8 LED7 $end
$var wire 1 n9 clk $end
$var wire 21 n10 cnt $end
$var wire 32 n11 count1 $end
$var wire 1 n12 quadA $end
$var wire 1 n13 quadB $end
$var wire 4 n14 quadcntA $end
$var wire 4 n15 quadcntB $end
$var wire 1 n16 resetn $end
$var wire 8 n17 resetn_counter $end
$scope module quad1 $end
$var wire 1 n18 clk $end
$var wire 32 n19 count $end
$var wire 1 n20 count_direction $end
$var wire 1 n21 count_enable $end
$var wire 1 n22 quadA $end
$var wire 3 n23 quadA_delayed $end
$var wire 1 n24 quadB $end
$var wire 3 n25 quadB_delayed $end
$var wire 1 n26 resetn $end
$upscope $end
$upscope $end
$enddefinitions $end
#0
b00000000 n17
b0 n16
b0100 n15
b0000 n14
b0 n13
b0 n12
bxxxxxxxxxxxxxxxxxxxxxxxxxxxxxxxx n11
b000000000000000000000 n10
bx n9
bx n8
bx n7
bx n6
bx n5
bx n4
bx n3
bx n2
bx n1
b0 n26
bxxx n25
b0 n24
bxxx n23
b0 n22
bx n21
bx n20
bxxxxxxxxxxxxxxxxxxxxxxxxxxxxxxxx n19
bx n18
#5
b0 n9
b0 n18
#10
b00000001 n17
b00000000000000000000000000000000 n11
b000000000000000000001 n10
b1 n9
b0 n8
b0 n7
b0 n6
b0 n5
b0 n4
b0 n3
b0 n2
b0 n1
bxx0 n25
bxx0 n23
b00000000000000000000000000000000 n19
b1 n18
#15
b0 n9
b0 n18
#20
b00000010 n17
b1 n9
bx00 n25
bx00 n23
b1 n18
#25
b0 n9
b0 n18
#30
b00000011 n17
b1 n9
b000 n25
b000 n23
b0 n21
b0 n20
b1 n18
#35
b0 n9
b0 n18
#40
b00000100 n17
b1 n9
b1 n18
#45
b0 n9
b0 n18
#50
b00000101 n17
b1 n9
b1 n18
#55
b0 n9
b0 n18
#60
b00000110 n17
b1 n9
b1 n18
#65
b0 n9
b0 n18
#70
b00000111 n17
b1 n9
b1 n18
#75
b0 n9
b0 n18
#80
b00001000 n17
b1 n9
b1 n18
#85
b0 n9
b0 n18
#90
b00001001 n17
b1 n9
b1 n18
#95
b0 n9
b0 n18
#100
b00001010 n17
b1 n9
b1 n18
#105
b0 n9
b0 n18
#110
b00001011 n17
b1 n9
b1 n18
#115
b0 n9
b0 n18
#120
b00001100 n17
b1 n9
b1 n18
#125
b0 n9
b0 n18
#130
b00001101 n17
b1 n9
b1 n18
#135
b0 n9
b0 n18
#140
b00001110 n17
b1 n9
b1 n18
#145
b0 n9
b0 n18
#150
b00001111 n17
b1 n9
b1 n18
#155
b0 n9
b0 n18
#160
b00010000 n17
b1 n9
b1 n18
#165
b0 n9
b0 n18
#170
b00010001 n17
b1 n9
b1 n18
#175
b0 n9
b0 n18
#180
b00010010 n17
b1 n9
b1 n18
#185
b0 n9
b0 n18
#190
b00010011 n17
b1 n9
b1 n18
#195
b0 n9
b0 n18
#200
b00010100 n17
b1 n9
b1 n18
#205
b0 n9
b0 n18
#210
b00010101 n17
b1 n9
b1 n18
#215
b0 n9
b0 n18
#220
b00010110 n17
b1 n9
b1 n18
#225
b0 n9
b0 n18
#230
b00010111 n17
b1 n9
b1 n18
#235
b0 n9
b0 n18
#240
b00011000 n17
b1 n9
b1 n18
#245
b0 n9
b0 n18
#250
b00011001 n17
b1 n9
b1 n18
#255
b0 n9
b0 n18
#260
b00011010 n17
b1 n9
b1 n18
#265
b0 n9
b0 n18
#270
b00011011 n17
b1 n9
b1 n18
#275
b0 n9
b0 n18
#280
b00011100 n17
b1 n9
b1 n18
#285
b0 n9
b0 n18
#290
b00011101 n17
b1 n9
b1 n18
#295
b0 n9
b0 n18
#300
b00011110 n17
b1 n9
b1 n18
#305
b0 n9
b0 n18
#310
b00011111 n17
b1 n9
b1 n18
#315
b0 n9
b0 n18
#320
b00100000 n17
b1 n9
b1 n18
#325
b0 n9
b0 n18
#330
b00100001 n17
b1 n9
b1 n18
#335
b0 n9
b0 n18
#340
b00100010 n17
b1 n9
b1 n18
#345
b0 n9
b0 n18
#350
b00100011 n17
b1 n9
b1 n18
#355
b0 n9
b0 n18
#360
b00100100 n17
b1 n9
b1 n18
#365
b0 n9
b0 n18
#370
b00100101 n17
b1 n9
b1 n18
#375
b0 n9
b0 n18
#380
b00100110 n17
b1 n9
b1 n18
#385
b0 n9
b0 n18
#390
b00100111 n17
b1 n9
b1 n18
#395
b0 n9
b0 n18
#400
b00101000 n17
b1 n9
b1 n18
#405
b0 n9
b0 n18
#410
b00101001 n17
b1 n9
b1 n18
#415
b0 n9
b0 n18
#420
b00101010 n17
b1 n9
b1 n18
#425
b0 n9
b0 n18
#430
b00101011 n17
b1 n9
b1 n18
#435
b0 n9
b0 n18
#440
b00101100 n17
b1 n9
b1 n18
#445
b0 n9
b0 n18
#450
b00101101 n17
b1 n9
b1 n18
#455
b0 n9
b0 n18
#460
b00101110 n17
b1 n9
b1 n18
#465
b0 n9
b0 n18
#470
b00101111 n17
b1 n9
b1 n18
#475
b0 n9
b0 n18
#480
b00110000 n17
b1 n9
b1 n18
#485
b0 n9
b0 n18
#490
b00110001 n17
b1 n9
b1 n18
#495
b0 n9
b0 n18
#500
b00110010 n17
b1 n9
b1 n18
#505
b0 n9
b0 n18
#510
b00110011 n17
b1 n9
b1 n18
#515
b0 n9
b0 n18
#520
b00110100 n17
b1 n9
b1 n18
#525
b0 n9
b0 n18
#530
b00110101 n17
b1 n9
b1 n18
#535
b0 n9
b0 n18
#540
b00110110 n17
b1 n9
b1 n18
#545
b0 n9
b0 n18
#550
b00110111 n17
b1 n9
b1 n18
#555
b0 n9
b0 n18
#560
b00111000 n17
b1 n9
b1 n18
#565
b0 n9
b0 n18
#570
b00111001 n17
b1 n9
b1 n18
#575
b0 n9
b0 n18
#580
b00111010 n17
b1 n9
b1 n18
#585
b0 n9
b0 n18
#590
b00111011 n17
b1 n9
b1 n18
#595
b0 n9
b0 n18
#600
b00111100 n17
b1 n9
b1 n18
#605
b0 n9
b0 n18
#610
b00111101 n17
b1 n9
b1 n18
#615
b0 n9
b0 n18
#620
b00111110 n17
b1 n9
b1 n18
#625
b0 n9
b0 n18
#630
b00111111 n17
b1 n9
b1 n18
#635
b0 n9
b0 n18
#640
b01000000 n17
b1 n9
b1 n18
#645
b0 n9
b0 n18
#650
b01000001 n17
b1 n9
b1 n18
#655
b0 n9
b0 n18
#660
b01000010 n17
b1 n9
b1 n18
#665
b0 n9
b0 n18
#670
b01000011 n17
b1 n9
b1 n18
#675
b0 n9
b0 n18
#680
b01000100 n17
b1 n9
b1 n18
#685
b0 n9
b0 n18
#690
b01000101 n17
b1 n9
b1 n18
#695
b0 n9
b0 n18
#700
b01000110 n17
b1 n9
b1 n18
#705
b0 n9
b0 n18
#710
b01000111 n17
b1 n9
b1 n18
#715
b0 n9
b0 n18
#720
b01001000 n17
b1 n9
b1 n18
#725
b0 n9
b0 n18
#730
b01001001 n17
b1 n9
b1 n18
#735
b0 n9
b0 n18
#740
b01001010 n17
b1 n9
b1 n18
#745
b0 n9
b0 n18
#750
b01001011 n17
b1 n9
b1 n18
#755
b0 n9
b0 n18
#760
b01001100 n17
b1 n9
b1 n18
#765
b0 n9
b0 n18
#770
b01001101 n17
b1 n9
b1 n18
#775
b0 n9
b0 n18
#780
b01001110 n17
b1 n9
b1 n18
#785
b0 n9
b0 n18
#790
b01001111 n17
b1 n9
b1 n18
#795
b0 n9
b0 n18
#800
b01010000 n17
b1 n9
b1 n18
#805
b0 n9
b0 n18
#810
b01010001 n17
b1 n9
b1 n18
#815
b0 n9
b0 n18
#820
b01010010 n17
b1 n9
b1 n18
#825
b0 n9
b0 n18
#830
b01010011 n17
b1 n9
b1 n18
#835
b0 n9
b0 n18
#840
b01010100 n17
b1 n9
b1 n18
#845
b0 n9
b0 n18
#850
b01010101 n17
b1 n9
b1 n18
#855
b0 n9
b0 n18
#860
b01010110 n17
b1 n9
b1 n18
#865
b0 n9
b0 n18
#870
b01010111 n17
b1 n9
b1 n18
#875
b0 n9
b0 n18
#880
b01011000 n17
b1 n9
b1 n18
#885
b0 n9
b0 n18
#890
b01011001 n17
b1 n9
b1 n18
#895
b0 n9
b0 n18
#900
b01011010 n17
b1 n9
b1 n18
#905
b0 n9
b0 n18
#910
b01011011 n17
b1 n9
b1 n18
#915
b0 n9
b0 n18
#920
b01011100 n17
b1 n9
b1 n18
#925
b0 n9
b0 n18
#930
b01011101 n17
b1 n9
b1 n18
#935
b0 n9
b0 n18
#940
b01011110 n17
b1 n9
b1 n18
#945
b0 n9
b0 n18
#950
b01011111 n17
b1 n9
b1 n18
#955
b0 n9
b0 n18
#960
b01100000 n17
b1 n9
b1 n18
#965
b0 n9
b0 n18
#970
b01100001 n17
b1 n9
b1 n18
#975
b0 n9
b0 n18
#980
b01100010 n17
b1 n9
b1 n18
#985
b0 n9
b0 n18
#990
b01100011 n17
b1 n9
b1 n18
#995
b0 n9
b0 n18
#1000
b01100100 n17
b1 n9
b1 n18
#1005
b0 n9
b0 n18
#1010
b01100101 n17
b1 n9
b1 n18
#1015
b0 n9
b0 n18
#1020
b01100110 n17
b1 n9
b1 n18
#1025
b0 n9
b0 n18
#1030
b01100111 n17
b1 n9
b1 n18
#1035
b0 n9
b0 n18
#1040
b01101000 n17
b1 n9
b1 n18
#1045
b0 n9
b0 n18
#1050
b01101001 n17
b1 n9
b1 n18
#1055
b0 n9
b0 n18
#1060
b01101010 n17
b1 n9
b1 n18
#1065
b0 n9
b0 n18
#1070
b01101011 n17
b1 n9
b1 n18
#1075
b0 n9
b0 n18
#1080
b01101100 n17
b1 n9
b1 n18
#1085
b0 n9
b0 n18
#1090
b01101101 n17
b1 n9
b1 n18
#1095
b0 n9
b0 n18
#1100
b01101110 n17
b1 n9
b1 n18
#1105
b0 n9
b0 n18
#1110
b01101111 n17
b1 n9
b1 n18
#1115
b0 n9
b0 n18
#1120
b01110000 n17
b1 n9
b1 n18
#1125
b0 n9
b0 n18
#1130
b01110001 n17
b1 n9
b1 n18
#1135
b0 n9
b0 n18
#1140
b01110010 n17
b1 n9
b1 n18
#1145
b0 n9
b0 n18
#1150
b01110011 n17
b1 n9
b1 n18
#1155
b0 n9
b0 n18
#1160
b01110100 n17
b1 n9
b1 n18
#1165
b0 n9
b0 n18
#1170
b01110101 n17
b1 n9
b1 n18
#1175
b0 n9
b0 n18
#1180
b01110110 n17
b1 n9
b1 n18
#1185
b0 n9
b0 n18
#1190
b01110111 n17
b1 n9
b1 n18
#1195
b0 n9
b0 n18
#1200
b01111000 n17
b1 n9
b1 n18
#1205
b0 n9
b0 n18
#1210
b01111001 n17
b1 n9
b1 n18
#1215
b0 n9
b0 n18
#1220
b01111010 n17
b1 n9
b1 n18
#1225
b0 n9
b0 n18
#1230
b01111011 n17
b1 n9
b1 n18
#1235
b0 n9
b0 n18
#1240
b01111100 n17
b1 n9
b1 n18
#1245
b0 n9
b0 n18
#1250
b01111101 n17
b1 n9
b1 n18
#1255
b0 n9
b0 n18
#1260
b01111110 n17
b1 n9
b1 n18
#1265
b0 n9
b0 n18
#1270
b01111111 n17
b1 n9
b1 n18
#1275
b0 n9
b0 n18
#1280
b10000000 n17
b1 n9
b1 n18
#1285
b0 n9
b0 n18
#1290
b10000001 n17
b1 n9
b1 n18
#1295
b0 n9
b0 n18
#1300
b10000010 n17
b1 n9
b1 n18
#1305
b0 n9
b0 n18
#1310
b10000011 n17
b1 n9
b1 n18
#1315
b0 n9
b0 n18
#1320
b10000100 n17
b1 n9
b1 n18
#1325
b0 n9
b0 n18
#1330
b10000101 n17
b1 n9
b1 n18
#1335
b0 n9
b0 n18
#1340
b10000110 n17
b1 n9
b1 n18
#1345
b0 n9
b0 n18
#1350
b10000111 n17
b1 n9
b1 n18
#1355
b0 n9
b0 n18
#1360
b10001000 n17
b1 n9
b1 n18
#1365
b0 n9
b0 n18
#1370
b10001001 n17
b1 n9
b1 n18
#1375
b0 n9
b0 n18
#1380
b10001010 n17
b1 n9
b1 n18
#1385
b0 n9
b0 n18
#1390
b10001011 n17
b1 n9
b1 n18
#1395
b0 n9
b0 n18
#1400
b10001100 n17
b1 n9
b1 n18
#1405
b0 n9
b0 n18
#1410
b10001101 n17
b1 n9
b1 n18
#1415
b0 n9
b0 n18
#1420
b10001110 n17
b1 n9
b1 n18
#1425
b0 n9
b0 n18
#1430
b10001111 n17
b1 n9
b1 n18
#1435
b0 n9
b0 n18
#1440
b10010000 n17
b1 n9
b1 n18
#1445
b0 n9
b0 n18
#1450
b10010001 n17
b1 n9
b1 n18
#1455
b0 n9
b0 n18
#1460
b10010010 n17
b1 n9
b1 n18
#1465
b0 n9
b0 n18
#1470
b10010011 n17
b1 n9
b1 n18
#1475
b0 n9
b0 n18
#1480
b10010100 n17
b1 n9
b1 n18
#1485
b0 n9
b0 n18
#1490
b10010101 n17
b1 n9
b1 n18
#1495
b0 n9
b0 n18
#1500
b10010110 n17
b1 n9
b1 n18
#1505
b0 n9
b0 n18
#1510
b10010111 n17
b1 n9
b1 n18
#1515
b0 n9
b0 n18
#1520
b10011000 n17
b1 n9
b1 n18
#1525
b0 n9
b0 n18
#1530
b10011001 n17
b1 n9
b1 n18
#1535
b0 n9
b0 n18
#1540
b10011010 n17
b1 n9
b1 n18
#1545
b0 n9
b0 n18
#1550
b10011011 n17
b1 n9
b1 n18
#1555
b0 n9
b0 n18
#1560
b10011100 n17
b1 n9
b1 n18
#1565
b0 n9
b0 n18
#1570
b10011101 n17
b1 n9
b1 n18
#1575
b0 n9
b0 n18
#1580
b10011110 n17
b1 n9
b1 n18
#1585
b0 n9
b0 n18
#1590
b10011111 n17
b1 n9
b1 n18
#1595
b0 n9
b0 n18
#1600
b10100000 n17
b1 n9
b1 n18
#1605
b0 n9
b0 n18
#1610
b10100001 n17
b1 n9
b1 n18
#1615
b0 n9
b0 n18
#1620
b10100010 n17
b1 n9
b1 n18
#1625
b0 n9
b0 n18
#1630
b10100011 n17
b1 n9
b1 n18
#1635
b0 n9
b0 n18
#1640
b10100100 n17
b1 n9
b1 n18
#1645
b0 n9
b0 n18
#1650
b10100101 n17
b1 n9
b1 n18
#1655
b0 n9
b0 n18
#1660
b10100110 n17
b1 n9
b1 n18
#1665
b0 n9
b0 n18
#1670
b10100111 n17
b1 n9
b1 n18
#1675
b0 n9
b0 n18
#1680
b10101000 n17
b1 n9
b1 n18
#1685
b0 n9
b0 n18
#1690
b10101001 n17
b1 n9
b1 n18
#1695
b0 n9
b0 n18
#1700
b10101010 n17
b1 n9
b1 n18
#1705
b0 n9
b0 n18
#1710
b10101011 n17
b1 n9
b1 n18
#1715
b0 n9
b0 n18
#1720
b10101100 n17
b1 n9
b1 n18
#1725
b0 n9
b0 n18
#1730
b10101101 n17
b1 n9
b1 n18
#1735
b0 n9
b0 n18
#1740
b10101110 n17
b1 n9
b1 n18
#1745
b0 n9
b0 n18
#1750
b10101111 n17
b1 n9
b1 n18
#1755
b0 n9
b0 n18
#1760
b10110000 n17
b1 n9
b1 n18
#1765
b0 n9
b0 n18
#1770
b10110001 n17
b1 n9
b1 n18
#1775
b0 n9
b0 n18
#1780
b10110010 n17
b1 n9
b1 n18
#1785
b0 n9
b0 n18
#1790
b10110011 n17
b1 n9
b1 n18
#1795
b0 n9
b0 n18
#1800
b10110100 n17
b1 n9
b1 n18
#1805
b0 n9
b0 n18
#1810
b10110101 n17
b1 n9
b1 n18
#1815
b0 n9
b0 n18
#1820
b10110110 n17
b1 n9
b1 n18
#1825
b0 n9
b0 n18
#1830
b10110111 n17
b1 n9
b1 n18
#1835
b0 n9
b0 n18
#1840
b10111000 n17
b1 n9
b1 n18
#1845
b0 n9
b0 n18
#1850
b10111001 n17
b1 n9
b1 n18
#1855
b0 n9
b0 n18
#1860
b10111010 n17
b1 n9
b1 n18
#1865
b0 n9
b0 n18
#1870
b10111011 n17
b1 n9
b1 n18
#1875
b0 n9
b0 n18
#1880
b10111100 n17
b1 n9
b1 n18
#1885
b0 n9
b0 n18
#1890
b10111101 n17
b1 n9
b1 n18
#1895
b0 n9
b0 n18
#1900
b10111110 n17
b1 n9
b1 n18
#1905
b0 n9
b0 n18
#1910
b10111111 n17
b1 n9
b1 n18
#1915
b0 n9
b0 n18
#1920
b11000000 n17
b1 n9
b1 n18
#1925
b0 n9
b0 n18
#1930
b11000001 n17
b1 n9
b1 n18
#1935
b0 n9
b0 n18
#1940
b11000010 n17
b1 n9
b1 n18
#1945
b0 n9
b0 n18
#1950
b11000011 n17
b1 n9
b1 n18
#1955
b0 n9
b0 n18
#1960
b11000100 n17
b1 n9
b1 n18
#1965
b0 n9
b0 n18
#1970
b11000101 n17
b1 n9
b1 n18
#1975
b0 n9
b0 n18
#1980
b11000110 n17
b1 n9
b1 n18
#1985
b0 n9
b0 n18
#1990
b11000111 n17
b1 n9
b1 n18
#1995
b0 n9
b0 n18
#2000
b11001000 n17
b1 n9
b1 n18
#2005
b0 n9
b0 n18
#2010
b11001001 n17
b1 n9
b1 n18
#2015
b0 n9
b0 n18
#2020
b11001010 n17
b1 n9
b1 n18
#2025
b0 n9
b0 n18
#2030
b11001011 n17
b1 n9
b1 n18
#2035
b0 n9
b0 n18
#2040
b11001100 n17
b1 n9
b1 n18
#2045
b0 n9
b0 n18
#2050
b11001101 n17
b1 n9
b1 n18
#2055
b0 n9
b0 n18
#2060
b11001110 n17
b1 n9
b1 n18
#2065
b0 n9
b0 n18
#2070
b11001111 n17
b1 n9
b1 n18
#2075
b0 n9
b0 n18
#2080
b11010000 n17
b1 n9
b1 n18
#2085
b0 n9
b0 n18
#2090
b11010001 n17
b1 n9
b1 n18
#2095
b0 n9
b0 n18
#2100
b11010010 n17
b1 n9
b1 n18
#2105
b0 n9
b0 n18
#2110
b11010011 n17
b1 n9
b1 n18
#2115
b0 n9
b0 n18
#2120
b11010100 n17
b1 n9
b1 n18
#2125
b0 n9
b0 n18
#2130
b11010101 n17
b1 n9
b1 n18
#2135
b0 n9
b0 n18
#2140
b11010110 n17
b1 n9
b1 n18
#2145
b0 n9
b0 n18
#2150
b11010111 n17
b1 n9
b1 n18
#2155
b0 n9
b0 n18
#2160
b11011000 n17
b1 n9
b1 n18
#2165
b0 n9
b0 n18
#2170
b11011001 n17
b1 n9
b1 n18
#2175
b0 n9
b0 n18
#2180
b11011010 n17
b1 n9
b1 n18
#2185
b0 n9
b0 n18
#2190
b11011011 n17
b1 n9
b1 n18
#2195
b0 n9
b0 n18
#2200
b11011100 n17
b1 n9
b1 n18
#2205
b0 n9
b0 n18
#2210
b11011101 n17
b1 n9
b1 n18
#2215
b0 n9
b0 n18
#2220
b11011110 n17
b1 n9
b1 n18
#2225
b0 n9
b0 n18
#2230
b11011111 n17
b1 n9
b1 n18
#2235
b0 n9
b0 n18
#2240
b11100000 n17
b1 n9
b1 n18
#2245
b0 n9
b0 n18
#2250
b11100001 n17
b1 n9
b1 n18
#2255
b0 n9
b0 n18
#2260
b11100010 n17
b1 n9
b1 n18
#2265
b0 n9
b0 n18
#2270
b11100011 n17
b1 n9
b1 n18
#2275
b0 n9
b0 n18
#2280
b11100100 n17
b1 n9
b1 n18
#2285
b0 n9
b0 n18
#2290
b11100101 n17
b1 n9
b1 n18
#2295
b0 n9
b0 n18
#2300
b11100110 n17
b1 n9
b1 n18
#2305
b0 n9
b0 n18
#2310
b11100111 n17
b1 n9
b1 n18
#2315
b0 n9
b0 n18
#2320
b11101000 n17
b1 n9
b1 n18
#2325
b0 n9
b0 n18
#2330
b11101001 n17
b1 n9
b1 n18
#2335
b0 n9
b0 n18
#2340
b11101010 n17
b1 n9
b1 n18
#2345
b0 n9
b0 n18
#2350
b11101011 n17
b1 n9
b1 n18
#2355
b0 n9
b0 n18
#2360
b11101100 n17
b1 n9
b1 n18
#2365
b0 n9
b0 n18
#2370
b11101101 n17
b1 n9
b1 n18
#2375
b0 n9
b0 n18
#2380
b11101110 n17
b1 n9
b1 n18
#2385
b0 n9
b0 n18
#2390
b11101111 n17
b1 n9
b1 n18
#2395
b0 n9
b0 n18
#2400
b11110000 n17
b1 n9
b1 n18
#2405
b0 n9
b0 n18
#2410
b11110001 n17
b1 n9
b1 n18
#2415
b0 n9
b0 n18
#2420
b11110010 n17
b1 n9
b1 n18
#2425
b0 n9
b0 n18
#2430
b11110011 n17
b1 n9
b1 n18
#2435
b0 n9
b0 n18
#2440
b11110100 n17
b1 n9
b1 n18
#2445
b0 n9
b0 n18
#2450
b11110101 n17
b1 n9
b1 n18
#2455
b0 n9
b0 n18
#2460
b11110110 n17
b1 n9
b1 n18
#2465
b0 n9
b0 n18
#2470
b11110111 n17
b1 n9
b1 n18
#2475
b0 n9
b0 n18
#2480
b11111000 n17
b1 n9
b1 n18
#2485
b0 n9
b0 n18
#2490
b11111001 n17
b1 n9
b1 n18
#2495
b0 n9
b0 n18
#2500
b11111010 n17
b1 n9
b1 n18
#2505
b0 n9
b0 n18
#2510
b11111011 n17
b1 n9
b1 n18
#2515
b0 n9
b0 n18
#2520
b11111100 n17
b1 n9
b1 n18
#2525
b0 n9
b0 n18
#2530
b11111101 n17
b1 n9
b1 n18
#2535
b0 n9
b0 n18
#2540
b11111110 n17
b1 n9
b1 n18
#2545
b0 n9
b0 n18
#2550
b11111111 n17
b1 n16
b1 n9
b1 n26
b1 n18
#2555
b0 n9
b0 n18
#2560
b000000000000000000010 n10
b1 n9
b1 n18
#2565
b0 n9
b0 n18
#2570
b000000000000000000011 n10
b1 n9
b1 n18
#2575
b0 n9
b0 n18
#2580
b000000000000000000100 n10
b1 n9
b1 n18
#2585
b0 n9
b0 n18
#2590
b000000000000000000101 n10
b1 n9
b1 n18
#2595
b0 n9
b0 n18
#2600
b000000000000000000110 n10
b1 n9
b1 n18
#2605
b0 n9
b0 n18
#2610
b000000000000000000111 n10
b1 n9
b1 n18
#2615
b0 n9
b0 n18
#2620
b000000000000000001000 n10
b1 n9
b1 n18
#2625
b0 n9
b0 n18
#2630
b000000000000000001001 n10
b1 n9
b1 n18
#2635
b0 n9
b0 n18
#2640
b000000000000000001010 n10
b1 n9
b1 n18
#2645
b0 n9
b0 n18
#2650
b000000000000000001011 n10
b1 n9
b1 n18
#2655
b0 n9
b0 n18
#2660
b000000000000000001100 n10
b1 n9
b1 n18
#2665
b0 n9
b0 n18
#2670
b000000000000000001101 n10
b1 n9
b1 n18
#2675
b0 n9
b0 n18
#2680
b000000000000000001110 n10
b1 n9
b1 n18
#2685
b0 n9
b0 n18
#2690
b000000000000000001111 n10
b1 n9
b1 n18
#2695
b0 n9
b0 n18
#2700
b000000000000000010000 n10
b1 n9
b1 n18
#2705
b0 n9
b0 n18
#2710
b000000000000000010001 n10
b1 n9
b1 n18
#2715
b0 n9
b0 n18
#2720
b000000000000000010010 n10
b1 n9
b1 n18
#2725
b0 n9
b0 n18
#2730
b000000000000000010011 n10
b1 n9
b1 n18
#2735
b0 n9
b0 n18
#2740
b000000000000000010100 n10
b1 n9
b1 n18
#2745
b0 n9
b0 n18
#2750
b000000000000000010101 n10
b1 n9
b1 n18
#2755
b0 n9
b0 n18
#2760
b000000000000000010110 n10
b1 n9
b1 n18
#2765
b0 n9
b0 n18
#2770
b000000000000000010111 n10
b1 n9
b1 n18
#2775
b0 n9
b0 n18
#2780
b000000000000000011000 n10
b1 n9
b1 n18
#2785
b0 n9
b0 n18
#2790
b000000000000000011001 n10
b1 n9
b1 n18
#2795
b0 n9
b0 n18
#2800
b000000000000000011010 n10
b1 n9
b1 n18
#2805
b0 n9
b0 n18
#2810
b000000000000000011011 n10
b1 n9
b1 n18
#2815
b0 n9
b0 n18
#2820
b000000000000000011100 n10
b1 n9
b1 n18
#2825
b0 n9
b0 n18
#2830
b000000000000000011101 n10
b1 n9
b1 n18
#2835
b0 n9
b0 n18
#2840
b000000000000000011110 n10
b1 n9
b1 n18
#2845
b0 n9
b0 n18
#2850
b000000000000000011111 n10
b1 n9
b1 n18
#2855
b0 n9
b0 n18
#2860
b000000000000000100000 n10
b1 n9
b1 n18
#2865
b0 n9
b0 n18
#2870
b000000000000000100001 n10
b1 n9
b1 n18
#2875
b0 n9
b0 n18
#2880
b000000000000000100010 n10
b1 n9
b1 n18
#2885
b0 n9
b0 n18
#2890
b000000000000000100011 n10
b1 n9
b1 n18
#2895
b0 n9
b0 n18
#2900
b000000000000000100100 n10
b1 n9
b1 n18
#2905
b0 n9
b0 n18
#2910
b000000000000000100101 n10
b1 n9
b1 n18
#2915
b0 n9
b0 n18
#2920
b000000000000000100110 n10
b1 n9
b1 n18
#2925
b0 n9
b0 n18
#2930
b000000000000000100111 n10
b1 n9
b1 n18
#2935
b0 n9
b0 n18
#2940
b000000000000000101000 n10
b1 n9
b1 n18
#2945
b0 n9
b0 n18
#2950
b000000000000000101001 n10
b1 n9
b1 n18
#2955
b0 n9
b0 n18
#2960
b000000000000000101010 n10
b1 n9
b1 n18
#2965
b0 n9
b0 n18
#2970
b000000000000000101011 n10
b1 n9
b1 n18
#2975
b0 n9
b0 n18
#2980
b000000000000000101100 n10
b1 n9
b1 n18
#2985
b0 n9
b0 n18
#2990
b000000000000000101101 n10
b1 n9
b1 n18
#2995
b0 n9
b0 n18
#3000
b000000000000000101110 n10
b1 n9
b1 n18
#3005
b0 n9
b0 n18
#3010
b000000000000000101111 n10
b1 n9
b1 n18
#3015
b0 n9
b0 n18
#3020
b000000000000000110000 n10
b1 n9
b1 n18
#3025
b0 n9
b0 n18
#3030
b000000000000000110001 n10
b1 n9
b1 n18
#3035
b0 n9
b0 n18
#3040
b000000000000000110010 n10
b1 n9
b1 n18
#3045
b0 n9
b0 n18
#3050
b000000000000000110011 n10
b1 n9
b1 n18
#3055
b0 n9
b0 n18
#3060
b000000000000000110100 n10
b1 n9
b1 n18
#3065
b0 n9
b0 n18
#3070
b000000000000000110101 n10
b1 n9
b1 n18
#3075
b0 n9
b0 n18
#3080
b000000000000000110110 n10
b1 n9
b1 n18
#3085
b0 n9
b0 n18
#3090
b000000000000000110111 n10
b1 n9
b1 n18
#3095
b0 n9
b0 n18
#3100
b000000000000000111000 n10
b1 n9
b1 n18
#3105
b0 n9
b0 n18
#3110
b000000000000000111001 n10
b1 n9
b1 n18
#3115
b0 n9
b0 n18
#3120
b000000000000000111010 n10
b1 n9
b1 n18
#3125
b0 n9
b0 n18
#3130
b000000000000000111011 n10
b1 n9
b1 n18
#3135
b0 n9
b0 n18
#3140
b000000000000000111100 n10
b1 n9
b1 n18
#3145
b0 n9
b0 n18
#3150
b000000000000000111101 n10
b1 n9
b1 n18
#3155
b0 n9
b0 n18
#3160
b000000000000000111110 n10
b1 n9
b1 n18
#3165
b0 n9
b0 n18
#3170
b000000000000000111111 n10
b1 n9
b1 n18
#3175
b0 n9
b0 n18
#3180
b000000000000001000000 n10
b1 n9
b1 n18
#3185
b0 n9
b0 n18
#3190
b000000000000001000001 n10
b1 n9
b1 n18
#3195
b0 n9
b0 n18
#3200
b000000000000001000010 n10
b1 n9
b1 n18
#3205
b0 n9
b0 n18
#3210
b000000000000001000011 n10
b1 n9
b1 n18
#3215
b0 n9
b0 n18
#3220
b000000000000001000100 n10
b1 n9
b1 n18
#3225
b0 n9
b0 n18
#3230
b000000000000001000101 n10
b1 n9
b1 n18
#3235
b0 n9
b0 n18
#3240
b000000000000001000110 n10
b1 n9
b1 n18
#3245
b0 n9
b0 n18
#3250
b000000000000001000111 n10
b1 n9
b1 n18
#3255
b0 n9
b0 n18
#3260
b000000000000001001000 n10
b1 n9
b1 n18
#3265
b0 n9
b0 n18
#3270
b000000000000001001001 n10
b1 n9
b1 n18
#3275
b0 n9
b0 n18
#3280
b000000000000001001010 n10
b1 n9
b1 n18
#3285
b0 n9
b0 n18
#3290
b000000000000001001011 n10
b1 n9
b1 n18
#3295
b0 n9
b0 n18
#3300
b000000000000001001100 n10
b1 n9
b1 n18
#3305
b0 n9
b0 n18
#3310
b000000000000001001101 n10
b1 n9
b1 n18
#3315
b0 n9
b0 n18
#3320
b000000000000001001110 n10
b1 n9
b1 n18
#3325
b0 n9
b0 n18
#3330
b000000000000001001111 n10
b1 n9
b1 n18
#3335
b0 n9
b0 n18
#3340
b000000000000001010000 n10
b1 n9
b1 n18
#3345
b0 n9
b0 n18
#3350
b000000000000001010001 n10
b1 n9
b1 n18
#3355
b0 n9
b0 n18
#3360
b000000000000001010010 n10
b1 n9
b1 n18
#3365
b0 n9
b0 n18
#3370
b000000000000001010011 n10
b1 n9
b1 n18
#3375
b0 n9
b0 n18
#3380
b000000000000001010100 n10
b1 n9
b1 n18
#3385
b0 n9
b0 n18
#3390
b000000000000001010101 n10
b1 n9
b1 n18
#3395
b0 n9
b0 n18
#3400
b000000000000001010110 n10
b1 n9
b1 n18
#3405
b0 n9
b0 n18
#3410
b000000000000001010111 n10
b1 n9
b1 n18
#3415
b0 n9
b0 n18
#3420
b000000000000001011000 n10
b1 n9
b1 n18
#3425
b0 n9
b0 n18
#3430
b000000000000001011001 n10
b1 n9
b1 n18
#3435
b0 n9
b0 n18
#3440
b000000000000001011010 n10
b1 n9
b1 n18
#3445
b0 n9
b0 n18
#3450
b000000000000001011011 n10
b1 n9
b1 n18
#3455
b0 n9
b0 n18
#3460
b000000000000001011100 n10
b1 n9
b1 n18
#3465
b0 n9
b0 n18
#3470
b000000000000001011101 n10
b1 n9
b1 n18
#3475
b0 n9
b0 n18
#3480
b000000000000001011110 n10
b1 n9
b1 n18
#3485
b0 n9
b0 n18
#3490
b000000000000001011111 n10
b1 n9
b1 n18
